{
    "movies": [
        {
            "ratings": {
                "critics_score": 82, 
                "audience_score": 86, 
                "critics_rating": "Certified Fresh", 
                "audience_rating": "Upright"
            }, 
            "links": {
                "reviews": "http://api.rottentomatoes.com/api/public/v1.0/movies/494020502/reviews.json", 
                "cast": "http://api.rottentomatoes.com/api/public/v1.0/movies/494020502/cast.json", 
                "self": "http://api.rottentomatoes.com/api/public/v1.0/movies/494020502.json", 
                "alternate": "http://www.rottentomatoes.com/m/live_free_or_die_hard/", 
                "similar": "http://api.rottentomatoes.com/api/public/v1.0/movies/494020502/similar.json"
            }, 
            "title": "Live Free or Die Hard", 
            "critics_consensus": "", 
            "release_dates": {
                "dvd": "2007-11-20", 
                "theater": "2007-06-27"
            }, 
            "abridged_cast": [
                {
                    "name": "Bruce Willis", 
                    "characters": [
                        "John McClane"
                    ], 
                    "id": "162652509"
                }, 
                {
                    "name": "Timothy Olyphant", 
                    "characters": [
                        "Thomas Gabriel"
                    ], 
                    "id": "162696544"
                }, 
                {
                    "name": "Justin Long", 
                    "characters": [
                        "Matt Farrell"
                    ], 
                    "id": "162652679"
                }, 
                {
                    "name": "Maggie Q", 
                    "characters": [
                        "Mai"
                    ], 
                    "id": "397331134"
                }, 
                {
                    "name": "Cliff Curtis", 
                    "characters": [
                        "Bowman"
                    ], 
                    "id": "162660161"
                }
            ], 
            "synopsis": "", 
            "mpaa_rating": "PG-13", 
            "year": 2007, 
            "alternate_ids": {
                "imdb": "0337978"
            }, 
            "posters": {
                "profile": "http://resizing.flixster.com/Nezvc4Ouw2Tq9sz23FbJ74CeMbY=/54x74/dkpu1ddg7pbsk.cloudfront.net/movie/10/93/34/10933482_ori.jpg", 
                "detailed": "http://resizing.flixster.com/Nezvc4Ouw2Tq9sz23FbJ74CeMbY=/54x74/dkpu1ddg7pbsk.cloudfront.net/movie/10/93/34/10933482_ori.jpg", 
                "thumbnail": "http://resizing.flixster.com/Nezvc4Ouw2Tq9sz23FbJ74CeMbY=/54x74/dkpu1ddg7pbsk.cloudfront.net/movie/10/93/34/10933482_ori.jpg", 
                "original": "http://resizing.flixster.com/Nezvc4Ouw2Tq9sz23FbJ74CeMbY=/54x74/dkpu1ddg7pbsk.cloudfront.net/movie/10/93/34/10933482_ori.jpg"
            }, 
            "runtime": 128, 
            "id": "494020502"
        }, 
        {
            "ratings": {
                "critics_score": 92, 
                "audience_score": 94, 
                "critics_rating": "Certified Fresh", 
                "audience_rating": "Upright"
            }, 
            "links": {
                "reviews": "http://api.rottentomatoes.com/api/public/v1.0/movies/16351/reviews.json", 
                "cast": "http://api.rottentomatoes.com/api/public/v1.0/movies/16351/cast.json", 
                "self": "http://api.rottentomatoes.com/api/public/v1.0/movies/16351.json", 
                "alternate": "http://www.rottentomatoes.com/m/die_hard/", 
                "similar": "http://api.rottentomatoes.com/api/public/v1.0/movies/16351/similar.json"
            }, 
            "title": "Die Hard", 
            "critics_consensus": "", 
            "release_dates": {
                "dvd": "1999-03-09", 
                "theater": "1988-07-15"
            }, 
            "abridged_cast": [
                {
                    "name": "Bruce Willis", 
                    "characters": [
                        "John McClane"
                    ], 
                    "id": "162652509"
                }, 
                {
                    "name": "Alan Rickman", 
                    "characters": [
                        "Hans Gruber"
                    ], 
                    "id": "162666132"
                }, 
                {
                    "name": "Reginald VelJohnson", 
                    "characters": [
                        "Sgt. Al Powell"
                    ], 
                    "id": "359853015"
                }, 
                {
                    "name": "Bonnie Bedelia", 
                    "characters": [
                        "Holly McClane"
                    ], 
                    "id": "162669813"
                }, 
                {
                    "name": "Alexander Godunov", 
                    "characters": [
                        "Karl"
                    ], 
                    "id": "359853016"
                }
            ], 
            "synopsis": "", 
            "mpaa_rating": "R", 
            "year": 1988, 
            "alternate_ids": {
                "imdb": "0095016"
            }, 
            "posters": {
                "profile": "http://resizing.flixster.com/wGeXqFt-d2q0v_IwIro1xecHntI=/53x77/dkpu1ddg7pbsk.cloudfront.net/movie/11/16/47/11164776_ori.jpg", 
                "detailed": "http://resizing.flixster.com/wGeXqFt-d2q0v_IwIro1xecHntI=/53x77/dkpu1ddg7pbsk.cloudfront.net/movie/11/16/47/11164776_ori.jpg", 
                "thumbnail": "http://resizing.flixster.com/wGeXqFt-d2q0v_IwIro1xecHntI=/53x77/dkpu1ddg7pbsk.cloudfront.net/movie/11/16/47/11164776_ori.jpg", 
                "original": "http://resizing.flixster.com/wGeXqFt-d2q0v_IwIro1xecHntI=/53x77/dkpu1ddg7pbsk.cloudfront.net/movie/11/16/47/11164776_ori.jpg"
            }, 
            "runtime": 114, 
            "id": "16351"
        }, 
        {
            "ratings": {
                "critics_score": 14, 
                "audience_score": 41, 
                "critics_rating": "Rotten", 
                "audience_rating": "Spilled"
            }, 
            "links": {
                "reviews": "http://api.rottentomatoes.com/api/public/v1.0/movies/771257607/reviews.json", 
                "cast": "http://api.rottentomatoes.com/api/public/v1.0/movies/771257607/cast.json", 
                "self": "http://api.rottentomatoes.com/api/public/v1.0/movies/771257607.json", 
                "alternate": "http://www.rottentomatoes.com/m/a_good_day_to_die_hard/", 
                "similar": "http://api.rottentomatoes.com/api/public/v1.0/movies/771257607/similar.json"
            }, 
            "title": "A Good Day To Die Hard", 
            "critics_consensus": "", 
            "release_dates": {
                "dvd": "2013-06-04", 
                "theater": "2013-02-14"
            }, 
            "abridged_cast": [
                {
                    "name": "Bruce Willis", 
                    "characters": [
                        "John McClane"
                    ], 
                    "id": "162652509"
                }, 
                {
                    "name": "Sebastian Koch", 
                    "characters": [
                        "Komorov"
                    ], 
                    "id": "364644078"
                }, 
                {
                    "name": "Mary Elizabeth Winstead", 
                    "characters": [
                        "Lucy"
                    ], 
                    "id": "341817661"
                }, 
                {
                    "name": "Cole Hauser", 
                    "characters": [
                        "Collins"
                    ], 
                    "id": "162653534"
                }, 
                {
                    "name": "Amaury Nolasco", 
                    "characters": [
                        "Murphy"
                    ], 
                    "id": "770699753"
                }
            ], 
            "synopsis": "John McClane (Bruce Willis) heads to Russia in this fifth installment of the Die Hard film series. Skip Woods (The A-Team) provides the script, with Max Payne's John Moore directing. ~ Jeremy Wheeler, Rovi", 
            "mpaa_rating": "R", 
            "year": 2013, 
            "alternate_ids": {
                "imdb": "1606378"
            }, 
            "posters": {
                "profile": "http://resizing.flixster.com/0HBj2DruM9JBflUUaqrfhpG4Lqs=/54x81/dkpu1ddg7pbsk.cloudfront.net/movie/11/17/12/11171258_ori.jpg", 
                "detailed": "http://resizing.flixster.com/0HBj2DruM9JBflUUaqrfhpG4Lqs=/54x81/dkpu1ddg7pbsk.cloudfront.net/movie/11/17/12/11171258_ori.jpg", 
                "thumbnail": "http://resizing.flixster.com/0HBj2DruM9JBflUUaqrfhpG4Lqs=/54x81/dkpu1ddg7pbsk.cloudfront.net/movie/11/17/12/11171258_ori.jpg", 
                "original": "http://resizing.flixster.com/0HBj2DruM9JBflUUaqrfhpG4Lqs=/54x81/dkpu1ddg7pbsk.cloudfront.net/movie/11/17/12/11171258_ori.jpg"
            }, 
            "runtime": 97, 
            "id": "771257607"
        }, 
        {
            "ratings": {
                "critics_score": 69, 
                "audience_score": 70, 
                "critics_rating": "Fresh", 
                "audience_rating": "Upright"
            }, 
            "links": {
                "reviews": "http://api.rottentomatoes.com/api/public/v1.0/movies/16789/reviews.json", 
                "cast": "http://api.rottentomatoes.com/api/public/v1.0/movies/16789/cast.json", 
                "self": "http://api.rottentomatoes.com/api/public/v1.0/movies/16789.json", 
                "alternate": "http://www.rottentomatoes.com/m/die_hard_2_1990/", 
                "similar": "http://api.rottentomatoes.com/api/public/v1.0/movies/16789/similar.json"
            }, 
            "title": "Die Hard 2", 
            "critics_consensus": "", 
            "release_dates": {
                "dvd": "1999-03-09", 
                "theater": "1990-07-02"
            }, 
            "abridged_cast": [
                {
                    "name": "Bruce Willis", 
                    "characters": [
                        "John McClane"
                    ], 
                    "id": "162652509"
                }, 
                {
                    "name": "Bonnie Bedelia", 
                    "characters": [
                        "Holly McClane"
                    ], 
                    "id": "162669813"
                }, 
                {
                    "name": "William Atherton", 
                    "characters": [
                        "Dick Thornberg"
                    ], 
                    "id": "162768066"
                }, 
                {
                    "name": "Bill Sadler", 
                    "characters": [
                        "Col. Stuart"
                    ], 
                    "id": "770708463"
                }, 
                {
                    "name": "Reginald VelJohnson", 
                    "characters": [
                        "Sgt. Al Powell"
                    ], 
                    "id": "359853015"
                }
            ], 
            "synopsis": "", 
            "mpaa_rating": "R", 
            "year": 1990, 
            "alternate_ids": {
                "imdb": "0099423"
            }, 
            "posters": {
                "profile": "http://resizing.flixster.com/Ca6tLm-U3ueIaqyhKkcLONXi7Ag=/54x80/dkpu1ddg7pbsk.cloudfront.net/movie/10/93/34/10933489_ori.jpg", 
                "detailed": "http://resizing.flixster.com/Ca6tLm-U3ueIaqyhKkcLONXi7Ag=/54x80/dkpu1ddg7pbsk.cloudfront.net/movie/10/93/34/10933489_ori.jpg", 
                "thumbnail": "http://resizing.flixster.com/Ca6tLm-U3ueIaqyhKkcLONXi7Ag=/54x80/dkpu1ddg7pbsk.cloudfront.net/movie/10/93/34/10933489_ori.jpg", 
                "original": "http://resizing.flixster.com/Ca6tLm-U3ueIaqyhKkcLONXi7Ag=/54x80/dkpu1ddg7pbsk.cloudfront.net/movie/10/93/34/10933489_ori.jpg"
            }, 
            "runtime": 124, 
            "id": "16789"
        }, 
        {
            "ratings": {
                "critics_score": 51, 
                "audience_score": 83, 
                "critics_rating": "Rotten", 
                "audience_rating": "Upright"
            }, 
            "links": {
                "reviews": "http://api.rottentomatoes.com/api/public/v1.0/movies/15786/reviews.json", 
                "cast": "http://api.rottentomatoes.com/api/public/v1.0/movies/15786/cast.json", 
                "self": "http://api.rottentomatoes.com/api/public/v1.0/movies/15786.json", 
                "alternate": "http://www.rottentomatoes.com/m/die_hard_3_with_a_vengeance/", 
                "similar": "http://api.rottentomatoes.com/api/public/v1.0/movies/15786/similar.json"
            }, 
            "title": "Die Hard 3: With a Vengeance", 
            "critics_consensus": "", 
            "release_dates": {
                "dvd": "1999-03-09", 
                "theater": "1995-05-19"
            }, 
            "abridged_cast": [
                {
                    "name": "Sam Philips", 
                    "id": "770890211"
                }, 
                {
                    "name": "Bruce Willis", 
                    "characters": [
                        "John McClane"
                    ], 
                    "id": "162652509"
                }, 
                {
                    "name": "Jeremy Irons", 
                    "characters": [
                        "Simon"
                    ], 
                    "id": "162652244"
                }, 
                {
                    "name": "Samuel L. Jackson", 
                    "characters": [
                        "Zeus Carver"
                    ], 
                    "id": "162652156"
                }, 
                {
                    "name": "Graham Greene (II)", 
                    "characters": [
                        "Joe Lambert"
                    ], 
                    "id": "162655051"
                }
            ], 
            "synopsis": "", 
            "mpaa_rating": "R", 
            "year": 1995, 
            "alternate_ids": {
                "imdb": "0112864"
            }, 
            "posters": {
                "profile": "http://resizing.flixster.com/ghzebD6wTSE5SJk0EU5-IqetnRI=/53x77/dkpu1ddg7pbsk.cloudfront.net/movie/11/16/48/11164823_ori.jpg", 
                "detailed": "http://resizing.flixster.com/ghzebD6wTSE5SJk0EU5-IqetnRI=/53x77/dkpu1ddg7pbsk.cloudfront.net/movie/11/16/48/11164823_ori.jpg", 
                "thumbnail": "http://resizing.flixster.com/ghzebD6wTSE5SJk0EU5-IqetnRI=/53x77/dkpu1ddg7pbsk.cloudfront.net/movie/11/16/48/11164823_ori.jpg", 
                "original": "http://resizing.flixster.com/ghzebD6wTSE5SJk0EU5-IqetnRI=/53x77/dkpu1ddg7pbsk.cloudfront.net/movie/11/16/48/11164823_ori.jpg"
            }, 
            "runtime": 128, 
            "id": "15786"
        }, 
        {
            "ratings": {
                "critics_score": -1, 
                "audience_score": 19, 
                "audience_rating": "Spilled"
            }, 
            "links": {
                "reviews": "http://api.rottentomatoes.com/api/public/v1.0/movies/770936366/reviews.json", 
                "cast": "http://api.rottentomatoes.com/api/public/v1.0/movies/770936366/cast.json", 
                "self": "http://api.rottentomatoes.com/api/public/v1.0/movies/770936366.json", 
                "alternate": "http://www.rottentomatoes.com/m/die_hard_dracula/", 
                "similar": "http://api.rottentomatoes.com/api/public/v1.0/movies/770936366/similar.json"
            }, 
            "title": "Die Hard Dracula", 
            "release_dates": {
                "dvd": "1999-10-19", 
                "theater": "2002-12-31"
            }, 
            "abridged_cast": [
                {
                    "name": "Bruce Glover", 
                    "characters": [
                        "Dr. Van Helsing"
                    ], 
                    "id": "165245437"
                }, 
                {
                    "name": "Nathalie Huot", 
                    "id": "770695120"
                }, 
                {
                    "name": "Denny Sachen", 
                    "id": "770695116"
                }, 
                {
                    "name": "Talia Butone", 
                    "id": "771029094"
                }, 
                {
                    "name": "Kerry Dustin", 
                    "id": "770695117"
                }
            ], 
            "synopsis": "", 
            "mpaa_rating": "Unrated", 
            "year": 2002, 
            "alternate_ids": {
                "imdb": "0162930"
            }, 
            "posters": {
                "profile": "http://resizing.flixster.com/arrWjPUQzpGs85UUsGVKF5viPjE=/54x74/dkpu1ddg7pbsk.cloudfront.net/movie/10/98/56/10985695_ori.jpg", 
                "detailed": "http://resizing.flixster.com/arrWjPUQzpGs85UUsGVKF5viPjE=/54x74/dkpu1ddg7pbsk.cloudfront.net/movie/10/98/56/10985695_ori.jpg", 
                "thumbnail": "http://resizing.flixster.com/arrWjPUQzpGs85UUsGVKF5viPjE=/54x74/dkpu1ddg7pbsk.cloudfront.net/movie/10/98/56/10985695_ori.jpg", 
                "original": "http://resizing.flixster.com/arrWjPUQzpGs85UUsGVKF5viPjE=/54x74/dkpu1ddg7pbsk.cloudfront.net/movie/10/98/56/10985695_ori.jpg"
            }, 
            "runtime": 89, 
            "id": "770936366"
        }, 
        {
            "ratings": {
                "critics_score": -1, 
                "audience_score": 97, 
                "audience_rating": "Upright"
            }, 
            "links": {
                "reviews": "http://api.rottentomatoes.com/api/public/v1.0/movies/771324790/reviews.json", 
                "cast": "http://api.rottentomatoes.com/api/public/v1.0/movies/771324790/cast.json", 
                "self": "http://api.rottentomatoes.com/api/public/v1.0/movies/771324790.json", 
                "alternate": "http://www.rottentomatoes.com/m/die_hard_marathon/", 
                "similar": "http://api.rottentomatoes.com/api/public/v1.0/movies/771324790/similar.json"
            }, 
            "title": "Die Hard Marathon", 
            "release_dates": {
                "theater": "2013-02-13"
            }, 
            "abridged_cast": [
                {
                    "name": "Bruce Willis", 
                    "id": "162652509"
                }
            ], 
            "synopsis": "Yipee-Ki-Yay, \"Die Hard\" movie fans - the celebrated action movie series is returning to the big screen for one day only, on Wednesday, February 13th. Attendees can catch the first four movies in the franchise - \"Die Hard,\" \"Die Hard 2,\" \"Die Hard with a Vengeance\" and \"Live Free or Die Hard\" - plus a special advance showing of the newest chapter, \"A Good Day to Die Hard\" - all for one low price.", 
            "mpaa_rating": "R", 
            "year": 2013, 
            "posters": {
                "profile": "http://d3biamo577v4eu.cloudfront.net/static/images/redesign/poster_default_thumb.gif", 
                "detailed": "http://d3biamo577v4eu.cloudfront.net/static/images/redesign/poster_default_thumb.gif", 
                "thumbnail": "http://d3biamo577v4eu.cloudfront.net/static/images/redesign/poster_default_thumb.gif", 
                "original": "http://d3biamo577v4eu.cloudfront.net/static/images/redesign/poster_default_thumb.gif"
            }, 
            "runtime": "", 
            "id": "771324790"
        }, 
        {
            "ratings": {
                "critics_score": -1, 
                "audience_score": 100
            }, 
            "links": {
                "reviews": "http://api.rottentomatoes.com/api/public/v1.0/movies/770924377/reviews.json", 
                "cast": "http://api.rottentomatoes.com/api/public/v1.0/movies/770924377/cast.json", 
                "self": "http://api.rottentomatoes.com/api/public/v1.0/movies/770924377.json", 
                "alternate": "http://www.rottentomatoes.com/m/die_harder/", 
                "similar": "http://api.rottentomatoes.com/api/public/v1.0/movies/770924377/similar.json"
            }, 
            "title": "Die Harder", 
            "release_dates": {}, 
            "abridged_cast": [
                {
                    "name": "Ben Ng", 
                    "id": "770703937"
                }, 
                {
                    "name": "Linda Cheung", 
                    "id": "770849972"
                }, 
                {
                    "name": "Lily Chung", 
                    "id": "770687055"
                }
            ], 
            "synopsis": "", 
            "mpaa_rating": "Unrated", 
            "year": 1995, 
            "posters": {
                "profile": "http://d3biamo577v4eu.cloudfront.net/static/images/redesign/poster_default_thumb.gif", 
                "detailed": "http://d3biamo577v4eu.cloudfront.net/static/images/redesign/poster_default_thumb.gif", 
                "thumbnail": "http://d3biamo577v4eu.cloudfront.net/static/images/redesign/poster_default_thumb.gif", 
                "original": "http://d3biamo577v4eu.cloudfront.net/static/images/redesign/poster_default_thumb.gif"
            }, 
            "runtime": "", 
            "id": "770924377"
        }, 
        {
            "ratings": {
                "critics_score": -1, 
                "audience_score": 100, 
                "audience_rating": "Upright"
            }, 
            "links": {
                "reviews": "http://api.rottentomatoes.com/api/public/v1.0/movies/770825608/reviews.json", 
                "cast": "http://api.rottentomatoes.com/api/public/v1.0/movies/770825608/cast.json", 
                "self": "http://api.rottentomatoes.com/api/public/v1.0/movies/770825608.json", 
                "alternate": "http://www.rottentomatoes.com/m/do-or-die-dod-die-hard/", 
                "similar": "http://api.rottentomatoes.com/api/public/v1.0/movies/770825608/similar.json"
            }, 
            "title": "Do or Die: D.O.D Die Hard", 
            "release_dates": {
                "dvd": "2005-03-29", 
                "theater": "2005-12-31"
            }, 
            "abridged_cast": [
                {
                    "name": "Do or Die", 
                    "id": "770744866"
                }, 
                {
                    "name": "R. Kelly", 
                    "id": "326391010"
                }
            ], 
            "synopsis": "", 
            "mpaa_rating": "Unrated", 
            "year": 2005, 
            "posters": {
                "profile": "http://d3biamo577v4eu.cloudfront.net/static/images/redesign/poster_default_thumb.gif", 
                "detailed": "http://d3biamo577v4eu.cloudfront.net/static/images/redesign/poster_default_thumb.gif", 
                "thumbnail": "http://d3biamo577v4eu.cloudfront.net/static/images/redesign/poster_default_thumb.gif", 
                "original": "http://d3biamo577v4eu.cloudfront.net/static/images/redesign/poster_default_thumb.gif"
            }, 
            "runtime": "", 
            "id": "770825608"
        }, 
        {
            "ratings": {
                "critics_score": -1, 
                "audience_score": 44, 
                "audience_rating": "Spilled"
            }, 
            "links": {
                "reviews": "http://api.rottentomatoes.com/api/public/v1.0/movies/770808690/reviews.json", 
                "cast": "http://api.rottentomatoes.com/api/public/v1.0/movies/770808690/cast.json", 
                "self": "http://api.rottentomatoes.com/api/public/v1.0/movies/770808690.json", 
                "alternate": "http://www.rottentomatoes.com/m/angels_die_hard/", 
                "similar": "http://api.rottentomatoes.com/api/public/v1.0/movies/770808690/similar.json"
            }, 
            "title": "Angels Die Hard", 
            "release_dates": {
                "theater": "1970-07-08"
            }, 
            "abridged_cast": [
                {
                    "name": "R.G. Armstrong", 
                    "characters": [
                        "Mel Potter"
                    ], 
                    "id": "770674321"
                }, 
                {
                    "name": "Alan DeWitt", 
                    "characters": [
                        "Undertaker"
                    ], 
                    "id": "770793992"
                }, 
                {
                    "name": "Connie Nelson", 
                    "characters": [
                        "Nancy Davis"
                    ], 
                    "id": "378930986"
                }, 
                {
                    "name": "Frank Leo", 
                    "characters": [
                        "Dep.Martin"
                    ], 
                    "id": "770725719"
                }, 
                {
                    "name": "Gary Littlejohn", 
                    "characters": [
                        "Piston"
                    ], 
                    "id": "770705081"
                }
            ], 
            "synopsis": "", 
            "mpaa_rating": "R", 
            "year": 1970, 
            "alternate_ids": {
                "imdb": "0065405"
            }, 
            "posters": {
                "profile": "http://resizing.flixster.com/QwYd9q7lAHDfXoAZqd3hYYct4ZY=/53x81/dkpu1ddg7pbsk.cloudfront.net/movie/10/93/34/10933491_ori.jpg", 
                "detailed": "http://resizing.flixster.com/QwYd9q7lAHDfXoAZqd3hYYct4ZY=/53x81/dkpu1ddg7pbsk.cloudfront.net/movie/10/93/34/10933491_ori.jpg", 
                "thumbnail": "http://resizing.flixster.com/QwYd9q7lAHDfXoAZqd3hYYct4ZY=/53x81/dkpu1ddg7pbsk.cloudfront.net/movie/10/93/34/10933491_ori.jpg", 
                "original": "http://resizing.flixster.com/QwYd9q7lAHDfXoAZqd3hYYct4ZY=/53x81/dkpu1ddg7pbsk.cloudfront.net/movie/10/93/34/10933491_ori.jpg"
            }, 
            "runtime": 86, 
            "id": "770808690"
        }
    ], 
    "total": 18, 
    "link_template": "http://api.rottentomatoes.com/api/public/v1.0/movies.json?q={search-term}&page_limit={results-per-page}&page={page-number}", 
    "links": {
        "self": "http://api.rottentomatoes.com/api/public/v1.0/movies.json?q=die+hard&page_limit=10&page=1", 
        "next": "http://api.rottentomatoes.com/api/public/v1.0/movies.json?q=die+hard&page_limit=10&page=2"
    }
}